@startuml
package org.eniqen.pattern.singleton {
    class Singleton {
        - Singleton()

        + getInstance() : Singleton {Static}
    }

    class Holder {
        + INSTANCE : Singleton {static}
    }
}

Holder --+ Singleton
@enduml