@startuml

package org.eniqen.pattern.proxy {
    interface Folderable {
        + open() {abstract} : void
    }

    class Folder {
        + open() : void
    }

    class FolderProxy {
        - folder : Folder
        + FolderProxy(user : User)
        + open() : void
        - allowed() : boolean
    }

    class User {
        - User(login : String, permission : Permission)
        - permission : String
        - login : String

        + of(){static} {abstract} : User
    }
}

Folderable <|-- Folder
Folderable <|-- FolderProxy
Folder <.. FolderProxy
User <-- FolderProxy

@enduml