@startuml
package org.eniqen.pattern.builder {
    class Duck {
        - name: String
        - weight : int

        - Duck(builder : DuckBuilder)
    }

    class DuckBuilder {
        - name: String
        - weight : int

        + DuckBuilder(name : String, type : Type)

        + withWeight() : DuckBuilder
        + withColor() : DuckBuilder
        + build() : Duck
    }

    enum Type {
        + MALLARD {static}
        + RUBBER {static}
    }

    enum Color {
        + RED {static}
        + GREEN {static}
        + ORANGE {static}
    }
}

Duck +-- DuckBuilder
Duck *--> Color
Duck *--> Type

DuckBuilder *--> Color
DuckBuilder *--> Type
@enduml