@startuml
package org.eniqen.pattern.bridge {
    abstract class Bird {
        # duck : Duck

        + Bird(duck : Duck)

        + quack() {abstract} : void
    }

    class FakeBird {
        + quack() : void
        + FakeBird(duck : Duck)
    }

    interface Duck {
        + display() {abstract} : void
    }

    class RubberDuck {
        + display() : void
    }

    class MallardDuck {
        + display() : void
    }
}

Bird <|-- FakeBird
Bird -> Duck
Duck <|-- MallardDuck
Duck <|-- RubberDuck

@enduml